[gd_scene load_steps=7 format=2]

[ext_resource path="res://assets/objects/Bullet.png" type="Texture" id=1]
[ext_resource path="res://scripts/projectile/projectile.gd" type="Script" id=2]
[ext_resource path="res://assets/audio/Target.ogg" type="AudioStream" id=3]

[sub_resource type="RectangleShape2D" id=7]
extents = Vector2( 50, 19 )

[sub_resource type="Gradient" id=8]
offsets = PoolRealArray( 0.5, 1, 1 )
colors = PoolColorArray( 1, 1, 1, 1, 0.741071, 0.741071, 0.741071, 1, 0, 0, 0, 1 )

[sub_resource type="Gradient" id=9]
colors = PoolColorArray( 0.945098, 0.384314, 0.0823529, 1, 0.980392, 0.937255, 0.937255, 1 )

[node name="Projectile" type="Area2D"]
scale = Vector2( 0.5, 0.5 )
script = ExtResource( 2 )

[node name="Sprite" type="Sprite" parent="."]
scale = Vector2( 1.5, 1.5 )
texture = ExtResource( 1 )

[node name="CollisionShape2D" type="CollisionShape2D" parent="."]
scale = Vector2( 1.5, 1.5 )
shape = SubResource( 7 )

[node name="Target" type="AudioStreamPlayer2D" parent="."]
stream = ExtResource( 3 )

[node name="CPUParticles2D" type="CPUParticles2D" parent="."]
position = Vector2( -90, 0 )
scale = Vector2( 30, 5 )
amount = 20
emission_shape = 1
emission_sphere_radius = 1.0
direction = Vector2( 10, 0 )
spread = 1.0
gravity = Vector2( -80, 0 )
initial_velocity = 5.0
initial_velocity_random = 1.0
angular_velocity = 1.0
linear_accel = 10.0
radial_accel = 40.0
tangential_accel = 40.0
damping = 40.0
color = Color( 0.913725, 0.741176, 0.266667, 1 )
color_ramp = SubResource( 8 )
color_initial_ramp = SubResource( 9 )

[connection signal="body_entered" from="." to="." method="_on_Projectile_body_entered"]
